{
  "path": {
    "src":{
      "scss": "./src/assets/scss/**/*.scss",
      "scssTemplates": "src/assets/scss/templates",
      "js": "./src/assets/js/**/*.js",
      "img": "./src/assets/img/**/*.{png,jpg,jpeg,gif,svg}",
      "iconSvg": "./src/assets/icons/*.svg",      
      "iconTemplate": "./src/assets/scss/templates/icons.scss"
    },
    "dest":{
      "scss": "./src/assets/scss/",
      "css": "./dist/assets/css",
      "html": "./dist/*.html",
      "js": "./dist/assets/js",
      "img": "./dist/assets/img",
      "iconSvg": "./dist/assets/icons/"
    },
    "dist": "./dist/"
  },
  "browserSync": {
    "proxy": "localhost/malt/dist/index.html"
  }
}